<?xml version="1.0" encoding="UTF-8"?>
<session version="1.0">
<refactoring accessors="true" comment="Delete element from project &apos;Prova&apos;&#x0D;&#x0A;- Original project: &apos;Prova&apos;&#x0D;&#x0A;- Original element: &apos;Prova/src/knapsack_academy&apos;" description="Delete element" element1="/src&lt;knapsack_academy" elements="1" flags="589830" id="org.eclipse.jdt.ui.delete" resources="0" stamp="1568014669351" subPackages="false" version="1.0"/>
</session>